{"message":"success","data":{"data":[{"senderId":"U0KU8F9FQ6XW","receiverId":"UEJ35FEES2YX","senderProfileImage":"https://choys-app-assets.s3.ap-southeast-1.amazonaws.com/avatars/female-12.png","receiverProfileImage":null,"senderName":"Vanessa Chen","receiverName":"eugenr","recognitionDesc":"We take total responsibility and accountability for what we do","recognitionValues":["Take-100%-ownership"],"coins":20,"recognizedAt":"20 days ago"},{"senderId":"U0KU8F9FQ6XW","receiverId":"UTNR1YYINZ3F","senderProfileImage":"https://choys-app-assets.s3.ap-southeast-1.amazonaws.com/avatars/female-12.png","receiverProfileImage":"https://choys-app-assets.s3.ap-southeast-1.amazonaws.com/avatars/gamer-5748702-4800745.png","senderName":"Vanessa Chen","receiverName":"Atul Pandey","recognitionDesc":"We take total responsibility and accountability for what we do","recognitionValues":["Take-100%-ownership"],"coins":20,"recognizedAt":"20 days ago"},{"senderId":"UVALB7SJR6LN","receiverId":"UTNR1YYINZ3F","senderProfileImage":"https://choys-app-assets.s3.ap-southeast-1.amazonaws.com/avatars/pngtree-fashion-boy-avatar-png-image_6514592.png","receiverProfileImage":"https://choys-app-assets.s3.ap-southeast-1.amazonaws.com/avatars/gamer-5748702-4800745.png","senderName":"Rohit Krishna","receiverName":"Atul Pandey","recognitionDesc":"Your integrity sets a high standard for us all!","recognitionValues":["Integrity"],"recognizedAt":"4 months ago"}],"total":666,"page":1,"limit":3,"totalPages":222,"hasNextPage":true,"hasPrevPage":false},"statusCode":200,"meta":{}}